%YAML 1.1
%TAG !u! tag:unity3d.com,2011:
--- !u!1045 &1
EditorBuildSettings:
  m_ObjectHideFlags: 0
  serializedVersion: 2
  m_Scenes:
  - enabled: 1
    path: Assets/Scenes/MyLobbyScene.unity
    guid: 6231ef2f9fceaec439d66bb09621128b
  - enabled: 1
    path: Assets/Scenes/Gameplay.unity
    guid: 7bcd770a99ce5a345ae6a58123670479
  - enabled: 1
    path: Assets/Scenes/Thrown/MyLauncher.unity
    guid: 53a3c738faba07941abd9a7b9b690fca
  m_configObjects: {}
